<?xml version="1.0" encoding="UTF-8" standalone="no"?>
<!DOCTYPE svg PUBLIC "-//W3C//DTD SVG 1.1//EN"
 "http://www.w3.org/Graphics/SVG/1.1/DTD/svg11.dtd">
<!-- Generated by graphviz version 2.40.1 (20161225.0304)
 -->
<!-- Title: %3 Pages: 1 -->
<svg width="5920pt" height="416pt"
 viewBox="0.00 0.00 5920.00 416.00" xmlns="http://www.w3.org/2000/svg" xmlns:xlink="http://www.w3.org/1999/xlink">
<g id="graph0" class="graph" transform="scale(1 1) rotate(0) translate(4 412)">
<title>%3</title>
<polygon fill="#ffffff" stroke="transparent" points="-4,4 -4,-412 5916,-412 5916,4 -4,4"/>
<!-- a -->
<g id="node1" class="node">
<title>a</title>
<polygon fill="none" stroke="#000000" points="1656,-38 1602,-38 1602,0 1656,0 1656,-38"/>
<text text-anchor="middle" x="1629" y="-22.8" font-family="Times,serif" font-size="14.00" fill="#000000">a</text>
<text text-anchor="middle" x="1629" y="-7.8" font-family="Times,serif" font-size="14.00" fill="#000000">1</text>
</g>
<!-- b -->
<g id="node2" class="node">
<title>b</title>
<polygon fill="none" stroke="#000000" points="1728,-38 1674,-38 1674,0 1728,0 1728,-38"/>
<text text-anchor="middle" x="1701" y="-22.8" font-family="Times,serif" font-size="14.00" fill="#000000">b</text>
<text text-anchor="middle" x="1701" y="-7.8" font-family="Times,serif" font-size="14.00" fill="#000000">1</text>
</g>
<!-- ABab -->
<g id="node3" class="node">
<title>ABab</title>
<polygon fill="none" stroke="#000000" points="1728,-112 1674,-112 1674,-74 1728,-74 1728,-112"/>
<text text-anchor="middle" x="1701" y="-96.8" font-family="Times,serif" font-size="14.00" fill="#000000">ABab</text>
<text text-anchor="middle" x="1701" y="-81.8" font-family="Times,serif" font-size="14.00" fill="#000000">4</text>
</g>
<!-- ABab&#45;&gt;a -->
<g id="edge1" class="edge">
<title>ABab&#45;&gt;a</title>
<path fill="none" stroke="#000000" d="M1682.4582,-73.9432C1674.0416,-65.2928 1663.9452,-54.9159 1654.8046,-45.5214"/>
<polygon fill="#000000" stroke="#000000" points="1657.2113,-42.976 1647.7292,-38.2495 1652.1942,-47.8575 1657.2113,-42.976"/>
</g>
<!-- ABab&#45;&gt;b -->
<g id="edge2" class="edge">
<title>ABab&#45;&gt;b</title>
<path fill="none" stroke="#000000" d="M1701,-73.9432C1701,-66.1493 1701,-56.9538 1701,-48.3381"/>
<polygon fill="#000000" stroke="#000000" points="1704.5001,-48.2494 1701,-38.2495 1697.5001,-48.2495 1704.5001,-48.2494"/>
</g>
<!-- c -->
<g id="node4" class="node">
<title>c</title>
<polygon fill="none" stroke="#000000" points="1800,-38 1746,-38 1746,0 1800,0 1800,-38"/>
<text text-anchor="middle" x="1773" y="-22.8" font-family="Times,serif" font-size="14.00" fill="#000000">c</text>
<text text-anchor="middle" x="1773" y="-7.8" font-family="Times,serif" font-size="14.00" fill="#000000">1</text>
</g>
<!-- d -->
<g id="node5" class="node">
<title>d</title>
<polygon fill="none" stroke="#000000" points="1872,-38 1818,-38 1818,0 1872,0 1872,-38"/>
<text text-anchor="middle" x="1845" y="-22.8" font-family="Times,serif" font-size="14.00" fill="#000000">d</text>
<text text-anchor="middle" x="1845" y="-7.8" font-family="Times,serif" font-size="14.00" fill="#000000">1</text>
</g>
<!-- CDcd -->
<g id="node6" class="node">
<title>CDcd</title>
<polygon fill="none" stroke="#000000" points="1825,-112 1771,-112 1771,-74 1825,-74 1825,-112"/>
<text text-anchor="middle" x="1798" y="-96.8" font-family="Times,serif" font-size="14.00" fill="#000000">CDcd</text>
<text text-anchor="middle" x="1798" y="-81.8" font-family="Times,serif" font-size="14.00" fill="#000000">4</text>
</g>
<!-- CDcd&#45;&gt;c -->
<g id="edge3" class="edge">
<title>CDcd&#45;&gt;c</title>
<path fill="none" stroke="#000000" d="M1791.5619,-73.9432C1788.8709,-65.978 1785.6855,-56.549 1782.7199,-47.7709"/>
<polygon fill="#000000" stroke="#000000" points="1786.0198,-46.6032 1779.5032,-38.2495 1779.388,-48.8437 1786.0198,-46.6032"/>
</g>
<!-- CDcd&#45;&gt;d -->
<g id="edge4" class="edge">
<title>CDcd&#45;&gt;d</title>
<path fill="none" stroke="#000000" d="M1810.1037,-73.9432C1815.3258,-65.721 1821.5387,-55.9391 1827.2648,-46.9235"/>
<polygon fill="#000000" stroke="#000000" points="1830.367,-48.5673 1832.774,-38.2495 1824.4581,-44.8143 1830.367,-48.5673"/>
</g>
<!-- BAbaDCdcABabCDcd -->
<g id="node7" class="node">
<title>BAbaDCdcABabCDcd</title>
<polygon fill="none" stroke="#000000" points="1874,-186 1722,-186 1722,-148 1874,-148 1874,-186"/>
<text text-anchor="middle" x="1798" y="-170.8" font-family="Times,serif" font-size="14.00" fill="#000000">BAbaDCdcABabCDcd</text>
<text text-anchor="middle" x="1798" y="-155.8" font-family="Times,serif" font-size="14.00" fill="#000000">16</text>
</g>
<!-- BAbaDCdcABabCDcd&#45;&gt;ABab -->
<g id="edge5" class="edge">
<title>BAbaDCdcABabCDcd&#45;&gt;ABab</title>
<path fill="none" stroke="#000000" d="M1773.0201,-147.9432C1761.232,-138.9502 1746.9981,-128.0913 1734.3077,-118.41"/>
<polygon fill="#000000" stroke="#000000" points="1736.3059,-115.5322 1726.2324,-112.2495 1732.0601,-121.0976 1736.3059,-115.5322"/>
</g>
<!-- BAbaDCdcABabCDcd&#45;&gt;CDcd -->
<g id="edge6" class="edge">
<title>BAbaDCdcABabCDcd&#45;&gt;CDcd</title>
<path fill="none" stroke="#000000" d="M1798,-147.9432C1798,-140.1493 1798,-130.9538 1798,-122.3381"/>
<polygon fill="#000000" stroke="#000000" points="1801.5001,-122.2494 1798,-112.2495 1794.5001,-122.2495 1801.5001,-122.2494"/>
</g>
<!-- e -->
<g id="node8" class="node">
<title>e</title>
<polygon fill="none" stroke="#000000" points="1944,-38 1890,-38 1890,0 1944,0 1944,-38"/>
<text text-anchor="middle" x="1917" y="-22.8" font-family="Times,serif" font-size="14.00" fill="#000000">e</text>
<text text-anchor="middle" x="1917" y="-7.8" font-family="Times,serif" font-size="14.00" fill="#000000">1</text>
</g>
<!-- f -->
<g id="node9" class="node">
<title>f</title>
<polygon fill="none" stroke="#000000" points="2016,-38 1962,-38 1962,0 2016,0 2016,-38"/>
<text text-anchor="middle" x="1989" y="-22.8" font-family="Times,serif" font-size="14.00" fill="#000000">f</text>
<text text-anchor="middle" x="1989" y="-7.8" font-family="Times,serif" font-size="14.00" fill="#000000">1</text>
</g>
<!-- EFef -->
<g id="node10" class="node">
<title>EFef</title>
<polygon fill="none" stroke="#000000" points="2003,-112 1949,-112 1949,-74 2003,-74 2003,-112"/>
<text text-anchor="middle" x="1976" y="-96.8" font-family="Times,serif" font-size="14.00" fill="#000000">EFef</text>
<text text-anchor="middle" x="1976" y="-81.8" font-family="Times,serif" font-size="14.00" fill="#000000">4</text>
</g>
<!-- EFef&#45;&gt;e -->
<g id="edge7" class="edge">
<title>EFef&#45;&gt;e</title>
<path fill="none" stroke="#000000" d="M1960.806,-73.9432C1954.0457,-65.4641 1945.9628,-55.3262 1938.5913,-46.0806"/>
<polygon fill="#000000" stroke="#000000" points="1941.3183,-43.8865 1932.3475,-38.2495 1935.845,-48.2504 1941.3183,-43.8865"/>
</g>
<!-- EFef&#45;&gt;f -->
<g id="edge8" class="edge">
<title>EFef&#45;&gt;f</title>
<path fill="none" stroke="#000000" d="M1979.3478,-73.9432C1980.717,-66.1493 1982.3324,-56.9538 1983.846,-48.3381"/>
<polygon fill="#000000" stroke="#000000" points="1987.3352,-48.7042 1985.6183,-38.2495 1980.4408,-47.493 1987.3352,-48.7042"/>
</g>
<!-- g -->
<g id="node11" class="node">
<title>g</title>
<polygon fill="none" stroke="#000000" points="2088,-38 2034,-38 2034,0 2088,0 2088,-38"/>
<text text-anchor="middle" x="2061" y="-22.8" font-family="Times,serif" font-size="14.00" fill="#000000">g</text>
<text text-anchor="middle" x="2061" y="-7.8" font-family="Times,serif" font-size="14.00" fill="#000000">1</text>
</g>
<!-- h -->
<g id="node12" class="node">
<title>h</title>
<polygon fill="none" stroke="#000000" points="2160,-38 2106,-38 2106,0 2160,0 2160,-38"/>
<text text-anchor="middle" x="2133" y="-22.8" font-family="Times,serif" font-size="14.00" fill="#000000">h</text>
<text text-anchor="middle" x="2133" y="-7.8" font-family="Times,serif" font-size="14.00" fill="#000000">1</text>
</g>
<!-- GHgh -->
<g id="node13" class="node">
<title>GHgh</title>
<polygon fill="none" stroke="#000000" points="2088,-112 2034,-112 2034,-74 2088,-74 2088,-112"/>
<text text-anchor="middle" x="2061" y="-96.8" font-family="Times,serif" font-size="14.00" fill="#000000">GHgh</text>
<text text-anchor="middle" x="2061" y="-81.8" font-family="Times,serif" font-size="14.00" fill="#000000">4</text>
</g>
<!-- GHgh&#45;&gt;g -->
<g id="edge9" class="edge">
<title>GHgh&#45;&gt;g</title>
<path fill="none" stroke="#000000" d="M2061,-73.9432C2061,-66.1493 2061,-56.9538 2061,-48.3381"/>
<polygon fill="#000000" stroke="#000000" points="2064.5001,-48.2494 2061,-38.2495 2057.5001,-48.2495 2064.5001,-48.2494"/>
</g>
<!-- GHgh&#45;&gt;h -->
<g id="edge10" class="edge">
<title>GHgh&#45;&gt;h</title>
<path fill="none" stroke="#000000" d="M2079.5418,-73.9432C2087.9584,-65.2928 2098.0548,-54.9159 2107.1954,-45.5214"/>
<polygon fill="#000000" stroke="#000000" points="2109.8058,-47.8575 2114.2708,-38.2495 2104.7887,-42.976 2109.8058,-47.8575"/>
</g>
<!-- FEfeHGhgEFefGHgh -->
<g id="node14" class="node">
<title>FEfeHGhgEFefGHgh</title>
<polygon fill="none" stroke="#000000" points="2048,-186 1904,-186 1904,-148 2048,-148 2048,-186"/>
<text text-anchor="middle" x="1976" y="-170.8" font-family="Times,serif" font-size="14.00" fill="#000000">FEfeHGhgEFefGHgh</text>
<text text-anchor="middle" x="1976" y="-155.8" font-family="Times,serif" font-size="14.00" fill="#000000">16</text>
</g>
<!-- FEfeHGhgEFefGHgh&#45;&gt;EFef -->
<g id="edge11" class="edge">
<title>FEfeHGhgEFefGHgh&#45;&gt;EFef</title>
<path fill="none" stroke="#000000" d="M1976,-147.9432C1976,-140.1493 1976,-130.9538 1976,-122.3381"/>
<polygon fill="#000000" stroke="#000000" points="1979.5001,-122.2494 1976,-112.2495 1972.5001,-122.2495 1979.5001,-122.2494"/>
</g>
<!-- FEfeHGhgEFefGHgh&#45;&gt;GHgh -->
<g id="edge12" class="edge">
<title>FEfeHGhgEFefGHgh&#45;&gt;GHgh</title>
<path fill="none" stroke="#000000" d="M1997.8896,-147.9432C2008.0226,-139.1215 2020.218,-128.5043 2031.176,-118.9645"/>
<polygon fill="#000000" stroke="#000000" points="2033.6451,-121.4555 2038.8891,-112.2495 2029.0487,-116.1759 2033.6451,-121.4555"/>
</g>
<!-- DCdcBAbaCDcdABabHGhgFEfeGHghEFefBAbaDCdcABabCDcdFEfeHGhgEFefGHgh -->
<g id="node15" class="node">
<title>DCdcBAbaCDcdABabHGhgFEfeGHghEFefBAbaDCdcABabCDcdFEfeHGhgEFefGHgh</title>
<polygon fill="none" stroke="#000000" points="2201,-260 1659,-260 1659,-222 2201,-222 2201,-260"/>
<text text-anchor="middle" x="1930" y="-244.8" font-family="Times,serif" font-size="14.00" fill="#000000">DCdcBAbaCDcdABabHGhgFEfeGHghEFefBAbaDCdcABabCDcdFEfeHGhgEFefGHgh</text>
<text text-anchor="middle" x="1930" y="-229.8" font-family="Times,serif" font-size="14.00" fill="#000000">64</text>
</g>
<!-- DCdcBAbaCDcdABabHGhgFEfeGHghEFefBAbaDCdcABabCDcdFEfeHGhgEFefGHgh&#45;&gt;BAbaDCdcABabCDcd -->
<g id="edge13" class="edge">
<title>DCdcBAbaCDcdABabHGhgFEfeGHghEFefBAbaDCdcABabCDcdFEfeHGhgEFefGHgh&#45;&gt;BAbaDCdcABabCDcd</title>
<path fill="none" stroke="#000000" d="M1896.0067,-221.9432C1879.3541,-212.6076 1859.1147,-201.2612 1841.3617,-191.3088"/>
<polygon fill="#000000" stroke="#000000" points="1842.7712,-188.0866 1832.3369,-186.2495 1839.3481,-194.1925 1842.7712,-188.0866"/>
</g>
<!-- DCdcBAbaCDcdABabHGhgFEfeGHghEFefBAbaDCdcABabCDcdFEfeHGhgEFefGHgh&#45;&gt;FEfeHGhgEFefGHgh -->
<g id="edge14" class="edge">
<title>DCdcBAbaCDcdABabHGhgFEfeGHghEFefBAbaDCdcABabCDcdFEfeHGhgEFefGHgh&#45;&gt;FEfeHGhgEFefGHgh</title>
<path fill="none" stroke="#000000" d="M1941.8461,-221.9432C1946.9572,-213.721 1953.0378,-203.9391 1958.6422,-194.9235"/>
<polygon fill="#000000" stroke="#000000" points="1961.7272,-196.5901 1964.0341,-186.2495 1955.7822,-192.8945 1961.7272,-196.5901"/>
</g>
<!-- i -->
<g id="node16" class="node">
<title>i</title>
<polygon fill="none" stroke="#000000" points="2299,-38 2245,-38 2245,0 2299,0 2299,-38"/>
<text text-anchor="middle" x="2272" y="-22.8" font-family="Times,serif" font-size="14.00" fill="#000000">i</text>
<text text-anchor="middle" x="2272" y="-7.8" font-family="Times,serif" font-size="14.00" fill="#000000">1</text>
</g>
<!-- j -->
<g id="node17" class="node">
<title>j</title>
<polygon fill="none" stroke="#000000" points="2371,-38 2317,-38 2317,0 2371,0 2371,-38"/>
<text text-anchor="middle" x="2344" y="-22.8" font-family="Times,serif" font-size="14.00" fill="#000000">j</text>
<text text-anchor="middle" x="2344" y="-7.8" font-family="Times,serif" font-size="14.00" fill="#000000">1</text>
</g>
<!-- IJij -->
<g id="node18" class="node">
<title>IJij</title>
<polygon fill="none" stroke="#000000" points="2371,-112 2317,-112 2317,-74 2371,-74 2371,-112"/>
<text text-anchor="middle" x="2344" y="-96.8" font-family="Times,serif" font-size="14.00" fill="#000000">IJij</text>
<text text-anchor="middle" x="2344" y="-81.8" font-family="Times,serif" font-size="14.00" fill="#000000">4</text>
</g>
<!-- IJij&#45;&gt;i -->
<g id="edge15" class="edge">
<title>IJij&#45;&gt;i</title>
<path fill="none" stroke="#000000" d="M2325.4582,-73.9432C2317.0416,-65.2928 2306.9452,-54.9159 2297.8046,-45.5214"/>
<polygon fill="#000000" stroke="#000000" points="2300.2113,-42.976 2290.7292,-38.2495 2295.1942,-47.8575 2300.2113,-42.976"/>
</g>
<!-- IJij&#45;&gt;j -->
<g id="edge16" class="edge">
<title>IJij&#45;&gt;j</title>
<path fill="none" stroke="#000000" d="M2344,-73.9432C2344,-66.1493 2344,-56.9538 2344,-48.3381"/>
<polygon fill="#000000" stroke="#000000" points="2347.5001,-48.2494 2344,-38.2495 2340.5001,-48.2495 2347.5001,-48.2494"/>
</g>
<!-- k -->
<g id="node19" class="node">
<title>k</title>
<polygon fill="none" stroke="#000000" points="2443,-38 2389,-38 2389,0 2443,0 2443,-38"/>
<text text-anchor="middle" x="2416" y="-22.8" font-family="Times,serif" font-size="14.00" fill="#000000">k</text>
<text text-anchor="middle" x="2416" y="-7.8" font-family="Times,serif" font-size="14.00" fill="#000000">1</text>
</g>
<!-- l -->
<g id="node20" class="node">
<title>l</title>
<polygon fill="none" stroke="#000000" points="2515,-38 2461,-38 2461,0 2515,0 2515,-38"/>
<text text-anchor="middle" x="2488" y="-22.8" font-family="Times,serif" font-size="14.00" fill="#000000">l</text>
<text text-anchor="middle" x="2488" y="-7.8" font-family="Times,serif" font-size="14.00" fill="#000000">1</text>
</g>
<!-- KLkl -->
<g id="node21" class="node">
<title>KLkl</title>
<polygon fill="none" stroke="#000000" points="2456,-112 2402,-112 2402,-74 2456,-74 2456,-112"/>
<text text-anchor="middle" x="2429" y="-96.8" font-family="Times,serif" font-size="14.00" fill="#000000">KLkl</text>
<text text-anchor="middle" x="2429" y="-81.8" font-family="Times,serif" font-size="14.00" fill="#000000">4</text>
</g>
<!-- KLkl&#45;&gt;k -->
<g id="edge17" class="edge">
<title>KLkl&#45;&gt;k</title>
<path fill="none" stroke="#000000" d="M2425.6522,-73.9432C2424.283,-66.1493 2422.6676,-56.9538 2421.154,-48.3381"/>
<polygon fill="#000000" stroke="#000000" points="2424.5592,-47.493 2419.3817,-38.2495 2417.6648,-48.7042 2424.5592,-47.493"/>
</g>
<!-- KLkl&#45;&gt;l -->
<g id="edge18" class="edge">
<title>KLkl&#45;&gt;l</title>
<path fill="none" stroke="#000000" d="M2444.194,-73.9432C2450.9543,-65.4641 2459.0372,-55.3262 2466.4087,-46.0806"/>
<polygon fill="#000000" stroke="#000000" points="2469.155,-48.2504 2472.6525,-38.2495 2463.6817,-43.8865 2469.155,-48.2504"/>
</g>
<!-- JIjiLKlkIJijKLkl -->
<g id="node22" class="node">
<title>JIjiLKlkIJijKLkl</title>
<polygon fill="none" stroke="#000000" points="2485.5,-186 2372.5,-186 2372.5,-148 2485.5,-148 2485.5,-186"/>
<text text-anchor="middle" x="2429" y="-170.8" font-family="Times,serif" font-size="14.00" fill="#000000">JIjiLKlkIJijKLkl</text>
<text text-anchor="middle" x="2429" y="-155.8" font-family="Times,serif" font-size="14.00" fill="#000000">16</text>
</g>
<!-- JIjiLKlkIJijKLkl&#45;&gt;IJij -->
<g id="edge19" class="edge">
<title>JIjiLKlkIJijKLkl&#45;&gt;IJij</title>
<path fill="none" stroke="#000000" d="M2407.1104,-147.9432C2396.9774,-139.1215 2384.782,-128.5043 2373.824,-118.9645"/>
<polygon fill="#000000" stroke="#000000" points="2375.9513,-116.1759 2366.1109,-112.2495 2371.3549,-121.4555 2375.9513,-116.1759"/>
</g>
<!-- JIjiLKlkIJijKLkl&#45;&gt;KLkl -->
<g id="edge20" class="edge">
<title>JIjiLKlkIJijKLkl&#45;&gt;KLkl</title>
<path fill="none" stroke="#000000" d="M2429,-147.9432C2429,-140.1493 2429,-130.9538 2429,-122.3381"/>
<polygon fill="#000000" stroke="#000000" points="2432.5001,-122.2494 2429,-112.2495 2425.5001,-122.2495 2432.5001,-122.2494"/>
</g>
<!-- m -->
<g id="node23" class="node">
<title>m</title>
<polygon fill="none" stroke="#000000" points="2587,-38 2533,-38 2533,0 2587,0 2587,-38"/>
<text text-anchor="middle" x="2560" y="-22.8" font-family="Times,serif" font-size="14.00" fill="#000000">m</text>
<text text-anchor="middle" x="2560" y="-7.8" font-family="Times,serif" font-size="14.00" fill="#000000">1</text>
</g>
<!-- n -->
<g id="node24" class="node">
<title>n</title>
<polygon fill="none" stroke="#000000" points="2659,-38 2605,-38 2605,0 2659,0 2659,-38"/>
<text text-anchor="middle" x="2632" y="-22.8" font-family="Times,serif" font-size="14.00" fill="#000000">n</text>
<text text-anchor="middle" x="2632" y="-7.8" font-family="Times,serif" font-size="14.00" fill="#000000">1</text>
</g>
<!-- MNmn -->
<g id="node25" class="node">
<title>MNmn</title>
<polygon fill="none" stroke="#000000" points="2644.5,-112 2585.5,-112 2585.5,-74 2644.5,-74 2644.5,-112"/>
<text text-anchor="middle" x="2615" y="-96.8" font-family="Times,serif" font-size="14.00" fill="#000000">MNmn</text>
<text text-anchor="middle" x="2615" y="-81.8" font-family="Times,serif" font-size="14.00" fill="#000000">4</text>
</g>
<!-- MNmn&#45;&gt;m -->
<g id="edge21" class="edge">
<title>MNmn&#45;&gt;m</title>
<path fill="none" stroke="#000000" d="M2600.8361,-73.9432C2594.5978,-65.5497 2587.1513,-55.5309 2580.3359,-46.361"/>
<polygon fill="#000000" stroke="#000000" points="2583.0814,-44.1876 2574.307,-38.2495 2577.4632,-48.3633 2583.0814,-44.1876"/>
</g>
<!-- MNmn&#45;&gt;n -->
<g id="edge22" class="edge">
<title>MNmn&#45;&gt;n</title>
<path fill="none" stroke="#000000" d="M2619.3779,-73.9432C2621.1881,-66.0636 2623.3273,-56.7516 2625.3254,-48.0543"/>
<polygon fill="#000000" stroke="#000000" points="2628.7499,-48.7793 2627.5778,-38.2495 2621.9276,-47.2119 2628.7499,-48.7793"/>
</g>
<!-- o -->
<g id="node26" class="node">
<title>o</title>
<polygon fill="none" stroke="#000000" points="2731,-38 2677,-38 2677,0 2731,0 2731,-38"/>
<text text-anchor="middle" x="2704" y="-22.8" font-family="Times,serif" font-size="14.00" fill="#000000">o</text>
<text text-anchor="middle" x="2704" y="-7.8" font-family="Times,serif" font-size="14.00" fill="#000000">1</text>
</g>
<!-- p -->
<g id="node27" class="node">
<title>p</title>
<polygon fill="none" stroke="#000000" points="2803,-38 2749,-38 2749,0 2803,0 2803,-38"/>
<text text-anchor="middle" x="2776" y="-22.8" font-family="Times,serif" font-size="14.00" fill="#000000">p</text>
<text text-anchor="middle" x="2776" y="-7.8" font-family="Times,serif" font-size="14.00" fill="#000000">1</text>
</g>
<!-- OPop -->
<g id="node28" class="node">
<title>OPop</title>
<polygon fill="none" stroke="#000000" points="2731,-112 2677,-112 2677,-74 2731,-74 2731,-112"/>
<text text-anchor="middle" x="2704" y="-96.8" font-family="Times,serif" font-size="14.00" fill="#000000">OPop</text>
<text text-anchor="middle" x="2704" y="-81.8" font-family="Times,serif" font-size="14.00" fill="#000000">4</text>
</g>
<!-- OPop&#45;&gt;o -->
<g id="edge23" class="edge">
<title>OPop&#45;&gt;o</title>
<path fill="none" stroke="#000000" d="M2704,-73.9432C2704,-66.1493 2704,-56.9538 2704,-48.3381"/>
<polygon fill="#000000" stroke="#000000" points="2707.5001,-48.2494 2704,-38.2495 2700.5001,-48.2495 2707.5001,-48.2494"/>
</g>
<!-- OPop&#45;&gt;p -->
<g id="edge24" class="edge">
<title>OPop&#45;&gt;p</title>
<path fill="none" stroke="#000000" d="M2722.5418,-73.9432C2730.9584,-65.2928 2741.0548,-54.9159 2750.1954,-45.5214"/>
<polygon fill="#000000" stroke="#000000" points="2752.8058,-47.8575 2757.2708,-38.2495 2747.7887,-42.976 2752.8058,-47.8575"/>
</g>
<!-- NMnmPOpoMNmnOPop -->
<g id="node29" class="node">
<title>NMnmPOpoMNmnOPop</title>
<polygon fill="none" stroke="#000000" points="2699,-186 2531,-186 2531,-148 2699,-148 2699,-186"/>
<text text-anchor="middle" x="2615" y="-170.8" font-family="Times,serif" font-size="14.00" fill="#000000">NMnmPOpoMNmnOPop</text>
<text text-anchor="middle" x="2615" y="-155.8" font-family="Times,serif" font-size="14.00" fill="#000000">16</text>
</g>
<!-- NMnmPOpoMNmnOPop&#45;&gt;MNmn -->
<g id="edge25" class="edge">
<title>NMnmPOpoMNmnOPop&#45;&gt;MNmn</title>
<path fill="none" stroke="#000000" d="M2615,-147.9432C2615,-140.1493 2615,-130.9538 2615,-122.3381"/>
<polygon fill="#000000" stroke="#000000" points="2618.5001,-122.2494 2615,-112.2495 2611.5001,-122.2495 2618.5001,-122.2494"/>
</g>
<!-- NMnmPOpoMNmnOPop&#45;&gt;OPop -->
<g id="edge26" class="edge">
<title>NMnmPOpoMNmnOPop&#45;&gt;OPop</title>
<path fill="none" stroke="#000000" d="M2637.9197,-147.9432C2648.6326,-139.0359 2661.547,-128.298 2673.1063,-118.6869"/>
<polygon fill="#000000" stroke="#000000" points="2675.397,-121.3341 2680.8486,-112.2495 2670.9216,-115.9516 2675.397,-121.3341"/>
</g>
<!-- LKlkJIjiKLklIJijPOpoNMnmOPopMNmnJIjiLKlkIJijKLklNMnmPOpoMNmnOPop -->
<g id="node30" class="node">
<title>LKlkJIjiKLklIJijPOpoNMnmOPopMNmnJIjiLKlkIJijKLklNMnmPOpoMNmnOPop</title>
<polygon fill="none" stroke="#000000" points="2731,-260 2219,-260 2219,-222 2731,-222 2731,-260"/>
<text text-anchor="middle" x="2475" y="-244.8" font-family="Times,serif" font-size="14.00" fill="#000000">LKlkJIjiKLklIJijPOpoNMnmOPopMNmnJIjiLKlkIJijKLklNMnmPOpoMNmnOPop</text>
<text text-anchor="middle" x="2475" y="-229.8" font-family="Times,serif" font-size="14.00" fill="#000000">64</text>
</g>
<!-- LKlkJIjiKLklIJijPOpoNMnmOPopMNmnJIjiLKlkIJijKLklNMnmPOpoMNmnOPop&#45;&gt;JIjiLKlkIJijKLkl -->
<g id="edge27" class="edge">
<title>LKlkJIjiKLklIJijPOpoNMnmOPopMNmnJIjiLKlkIJijKLklNMnmPOpoMNmnOPop&#45;&gt;JIjiLKlkIJijKLkl</title>
<path fill="none" stroke="#000000" d="M2463.1539,-221.9432C2458.0428,-213.721 2451.9622,-203.9391 2446.3578,-194.9235"/>
<polygon fill="#000000" stroke="#000000" points="2449.2178,-192.8945 2440.9659,-186.2495 2443.2728,-196.5901 2449.2178,-192.8945"/>
</g>
<!-- LKlkJIjiKLklIJijPOpoNMnmOPopMNmnJIjiLKlkIJijKLklNMnmPOpoMNmnOPop&#45;&gt;NMnmPOpoMNmnOPop -->
<g id="edge28" class="edge">
<title>LKlkJIjiKLklIJijPOpoNMnmOPopMNmnJIjiLKlkIJijKLklNMnmPOpoMNmnOPop&#45;&gt;NMnmPOpoMNmnOPop</title>
<path fill="none" stroke="#000000" d="M2511.0535,-221.9432C2528.8773,-212.522 2550.5756,-201.0529 2569.5279,-191.0353"/>
<polygon fill="#000000" stroke="#000000" points="2571.3767,-194.0169 2578.5821,-186.2495 2568.1056,-187.8282 2571.3767,-194.0169"/>
</g>
<!-- HGhgFEfeGHghEFefDCdcBAbaCDcdABabFEfeHGhgEFefGHghBAbaDCdcABabCDcdPOpoNMnmOPopMNmnLKlkJIjiKLklIJijNMnmPOpoMNmnOPopJIjiLKlkIJijKLklDCdcBAbaCDcdABabHGhgFEfeGHghEFefBAbaDCdcABabCDcdFEfeHGhgEFefGHghLKlkJIjiKLklIJijPOpoNMnmOPopMNmnJIjiLKlkIJijKLklNMnmPOpoMNmnOPop -->
<g id="node31" class="node">
<title>HGhgFEfeGHghEFefDCdcBAbaCDcdABabFEfeHGhgEFefGHghBAbaDCdcABabCDcdPOpoNMnmOPopMNmnLKlkJIjiKLklIJijNMnmPOpoMNmnOPopJIjiLKlkIJijKLklDCdcBAbaCDcdABabHGhgFEfeGHghEFefBAbaDCdcABabCDcdFEfeHGhgEFefGHghLKlkJIjiKLklIJijPOpoNMnmOPopMNmnJIjiLKlkIJijKLklNMnmPOpoMNmnOPop</title>
<polygon fill="none" stroke="#000000" points="3230.5,-334 1173.5,-334 1173.5,-296 3230.5,-296 3230.5,-334"/>
<text text-anchor="middle" x="2202" y="-318.8" font-family="Times,serif" font-size="14.00" fill="#000000">HGhgFEfeGHghEFefDCdcBAbaCDcdABabFEfeHGhgEFefGHghBAbaDCdcABabCDcdPOpoNMnmOPopMNmnLKlkJIjiKLklIJijNMnmPOpoMNmnOPopJIjiLKlkIJijKLklDCdcBAbaCDcdABabHGhgFEfeGHghEFefBAbaDCdcABabCDcdFEfeHGhgEFefGHghLKlkJIjiKLklIJijPOpoNMnmOPopMNmnJIjiLKlkIJijKLklNMnmPOpoMNmnOPop</text>
<text text-anchor="middle" x="2202" y="-303.8" font-family="Times,serif" font-size="14.00" fill="#000000">256</text>
</g>
<!-- HGhgFEfeGHghEFefDCdcBAbaCDcdABabFEfeHGhgEFefGHghBAbaDCdcABabCDcdPOpoNMnmOPopMNmnLKlkJIjiKLklIJijNMnmPOpoMNmnOPopJIjiLKlkIJijKLklDCdcBAbaCDcdABabHGhgFEfeGHghEFefBAbaDCdcABabCDcdFEfeHGhgEFefGHghLKlkJIjiKLklIJijPOpoNMnmOPopMNmnJIjiLKlkIJijKLklNMnmPOpoMNmnOPop&#45;&gt;DCdcBAbaCDcdABabHGhgFEfeGHghEFefBAbaDCdcABabCDcdFEfeHGhgEFefGHgh -->
<g id="edge29" class="edge">
<title>HGhgFEfeGHghEFefDCdcBAbaCDcdABabFEfeHGhgEFefGHghBAbaDCdcABabCDcdPOpoNMnmOPopMNmnLKlkJIjiKLklIJijNMnmPOpoMNmnOPopJIjiLKlkIJijKLklDCdcBAbaCDcdABabHGhgFEfeGHghEFefBAbaDCdcABabCDcdFEfeHGhgEFefGHghLKlkJIjiKLklIJijPOpoNMnmOPopMNmnJIjiLKlkIJijKLklNMnmPOpoMNmnOPop&#45;&gt;DCdcBAbaCDcdABabHGhgFEfeGHghEFefBAbaDCdcABabCDcdFEfeHGhgEFefGHgh</title>
<path fill="none" stroke="#000000" d="M2131.9532,-295.9432C2094.6604,-285.7973 2048.6377,-273.2764 2009.9497,-262.751"/>
<polygon fill="#000000" stroke="#000000" points="2010.8497,-259.3687 2000.2816,-260.1207 2009.012,-266.1232 2010.8497,-259.3687"/>
</g>
<!-- HGhgFEfeGHghEFefDCdcBAbaCDcdABabFEfeHGhgEFefGHghBAbaDCdcABabCDcdPOpoNMnmOPopMNmnLKlkJIjiKLklIJijNMnmPOpoMNmnOPopJIjiLKlkIJijKLklDCdcBAbaCDcdABabHGhgFEfeGHghEFefBAbaDCdcABabCDcdFEfeHGhgEFefGHghLKlkJIjiKLklIJijPOpoNMnmOPopMNmnJIjiLKlkIJijKLklNMnmPOpoMNmnOPop&#45;&gt;LKlkJIjiKLklIJijPOpoNMnmOPopMNmnJIjiLKlkIJijKLklNMnmPOpoMNmnOPop -->
<g id="edge30" class="edge">
<title>HGhgFEfeGHghEFefDCdcBAbaCDcdABabFEfeHGhgEFefGHghBAbaDCdcABabCDcdPOpoNMnmOPopMNmnLKlkJIjiKLklIJijNMnmPOpoMNmnOPopJIjiLKlkIJijKLklDCdcBAbaCDcdABabHGhgFEfeGHghEFefBAbaDCdcABabCDcdFEfeHGhgEFefGHghLKlkJIjiKLklIJijPOpoNMnmOPopMNmnJIjiLKlkIJijKLklNMnmPOpoMNmnOPop&#45;&gt;LKlkJIjiKLklIJijPOpoNMnmOPopMNmnJIjiLKlkIJijKLklNMnmPOpoMNmnOPop</title>
<path fill="none" stroke="#000000" d="M2272.3043,-295.9432C2309.7342,-285.7973 2355.9262,-273.2764 2394.7564,-262.751"/>
<polygon fill="#000000" stroke="#000000" points="2395.724,-266.1151 2404.46,-260.1207 2393.8926,-259.3589 2395.724,-266.1151"/>
</g>
<!-- q -->
<g id="node32" class="node">
<title>q</title>
<polygon fill="none" stroke="#000000" points="3368,-38 3314,-38 3314,0 3368,0 3368,-38"/>
<text text-anchor="middle" x="3341" y="-22.8" font-family="Times,serif" font-size="14.00" fill="#000000">q</text>
<text text-anchor="middle" x="3341" y="-7.8" font-family="Times,serif" font-size="14.00" fill="#000000">1</text>
</g>
<!-- r -->
<g id="node33" class="node">
<title>r</title>
<polygon fill="none" stroke="#000000" points="3440,-38 3386,-38 3386,0 3440,0 3440,-38"/>
<text text-anchor="middle" x="3413" y="-22.8" font-family="Times,serif" font-size="14.00" fill="#000000">r</text>
<text text-anchor="middle" x="3413" y="-7.8" font-family="Times,serif" font-size="14.00" fill="#000000">1</text>
</g>
<!-- QRqr -->
<g id="node34" class="node">
<title>QRqr</title>
<polygon fill="none" stroke="#000000" points="3440,-112 3386,-112 3386,-74 3440,-74 3440,-112"/>
<text text-anchor="middle" x="3413" y="-96.8" font-family="Times,serif" font-size="14.00" fill="#000000">QRqr</text>
<text text-anchor="middle" x="3413" y="-81.8" font-family="Times,serif" font-size="14.00" fill="#000000">4</text>
</g>
<!-- QRqr&#45;&gt;q -->
<g id="edge31" class="edge">
<title>QRqr&#45;&gt;q</title>
<path fill="none" stroke="#000000" d="M3394.4582,-73.9432C3386.0416,-65.2928 3375.9452,-54.9159 3366.8046,-45.5214"/>
<polygon fill="#000000" stroke="#000000" points="3369.2113,-42.976 3359.7292,-38.2495 3364.1942,-47.8575 3369.2113,-42.976"/>
</g>
<!-- QRqr&#45;&gt;r -->
<g id="edge32" class="edge">
<title>QRqr&#45;&gt;r</title>
<path fill="none" stroke="#000000" d="M3413,-73.9432C3413,-66.1493 3413,-56.9538 3413,-48.3381"/>
<polygon fill="#000000" stroke="#000000" points="3416.5001,-48.2494 3413,-38.2495 3409.5001,-48.2495 3416.5001,-48.2494"/>
</g>
<!-- s -->
<g id="node35" class="node">
<title>s</title>
<polygon fill="none" stroke="#000000" points="3512,-38 3458,-38 3458,0 3512,0 3512,-38"/>
<text text-anchor="middle" x="3485" y="-22.8" font-family="Times,serif" font-size="14.00" fill="#000000">s</text>
<text text-anchor="middle" x="3485" y="-7.8" font-family="Times,serif" font-size="14.00" fill="#000000">1</text>
</g>
<!-- t -->
<g id="node36" class="node">
<title>t</title>
<polygon fill="none" stroke="#000000" points="3584,-38 3530,-38 3530,0 3584,0 3584,-38"/>
<text text-anchor="middle" x="3557" y="-22.8" font-family="Times,serif" font-size="14.00" fill="#000000">t</text>
<text text-anchor="middle" x="3557" y="-7.8" font-family="Times,serif" font-size="14.00" fill="#000000">1</text>
</g>
<!-- STst -->
<g id="node37" class="node">
<title>STst</title>
<polygon fill="none" stroke="#000000" points="3512,-112 3458,-112 3458,-74 3512,-74 3512,-112"/>
<text text-anchor="middle" x="3485" y="-96.8" font-family="Times,serif" font-size="14.00" fill="#000000">STst</text>
<text text-anchor="middle" x="3485" y="-81.8" font-family="Times,serif" font-size="14.00" fill="#000000">4</text>
</g>
<!-- STst&#45;&gt;s -->
<g id="edge33" class="edge">
<title>STst&#45;&gt;s</title>
<path fill="none" stroke="#000000" d="M3485,-73.9432C3485,-66.1493 3485,-56.9538 3485,-48.3381"/>
<polygon fill="#000000" stroke="#000000" points="3488.5001,-48.2494 3485,-38.2495 3481.5001,-48.2495 3488.5001,-48.2494"/>
</g>
<!-- STst&#45;&gt;t -->
<g id="edge34" class="edge">
<title>STst&#45;&gt;t</title>
<path fill="none" stroke="#000000" d="M3503.5418,-73.9432C3511.9584,-65.2928 3522.0548,-54.9159 3531.1954,-45.5214"/>
<polygon fill="#000000" stroke="#000000" points="3533.8058,-47.8575 3538.2708,-38.2495 3528.7887,-42.976 3533.8058,-47.8575"/>
</g>
<!-- RQrqTStsQRqrSTst -->
<g id="node38" class="node">
<title>RQrqTStsQRqrSTst</title>
<polygon fill="none" stroke="#000000" points="3535.5,-186 3402.5,-186 3402.5,-148 3535.5,-148 3535.5,-186"/>
<text text-anchor="middle" x="3469" y="-170.8" font-family="Times,serif" font-size="14.00" fill="#000000">RQrqTStsQRqrSTst</text>
<text text-anchor="middle" x="3469" y="-155.8" font-family="Times,serif" font-size="14.00" fill="#000000">16</text>
</g>
<!-- RQrqTStsQRqrSTst&#45;&gt;QRqr -->
<g id="edge35" class="edge">
<title>RQrqTStsQRqrSTst&#45;&gt;QRqr</title>
<path fill="none" stroke="#000000" d="M3454.5786,-147.9432C3448.2268,-139.5497 3440.645,-129.5309 3433.7057,-120.361"/>
<polygon fill="#000000" stroke="#000000" points="3436.3925,-118.1115 3427.5672,-112.2495 3430.8107,-122.3356 3436.3925,-118.1115"/>
</g>
<!-- RQrqTStsQRqrSTst&#45;&gt;STst -->
<g id="edge36" class="edge">
<title>RQrqTStsQRqrSTst&#45;&gt;STst</title>
<path fill="none" stroke="#000000" d="M3473.1204,-147.9432C3474.8241,-140.0636 3476.8375,-130.7516 3478.718,-122.0543"/>
<polygon fill="#000000" stroke="#000000" points="3482.1455,-122.7633 3480.838,-112.2495 3475.3036,-121.2839 3482.1455,-122.7633"/>
</g>
<!-- u -->
<g id="node39" class="node">
<title>u</title>
<polygon fill="none" stroke="#000000" points="3591,-112 3537,-112 3537,-74 3591,-74 3591,-112"/>
<text text-anchor="middle" x="3564" y="-96.8" font-family="Times,serif" font-size="14.00" fill="#000000">u</text>
<text text-anchor="middle" x="3564" y="-81.8" font-family="Times,serif" font-size="14.00" fill="#000000">1</text>
</g>
<!-- v -->
<g id="node40" class="node">
<title>v</title>
<polygon fill="none" stroke="#000000" points="3663,-112 3609,-112 3609,-74 3663,-74 3663,-112"/>
<text text-anchor="middle" x="3636" y="-96.8" font-family="Times,serif" font-size="14.00" fill="#000000">v</text>
<text text-anchor="middle" x="3636" y="-81.8" font-family="Times,serif" font-size="14.00" fill="#000000">1</text>
</g>
<!-- UVuv -->
<g id="node41" class="node">
<title>UVuv</title>
<polygon fill="none" stroke="#000000" points="3608,-186 3554,-186 3554,-148 3608,-148 3608,-186"/>
<text text-anchor="middle" x="3581" y="-170.8" font-family="Times,serif" font-size="14.00" fill="#000000">UVuv</text>
<text text-anchor="middle" x="3581" y="-155.8" font-family="Times,serif" font-size="14.00" fill="#000000">4</text>
</g>
<!-- UVuv&#45;&gt;u -->
<g id="edge37" class="edge">
<title>UVuv&#45;&gt;u</title>
<path fill="none" stroke="#000000" d="M3576.6221,-147.9432C3574.8119,-140.0636 3572.6727,-130.7516 3570.6746,-122.0543"/>
<polygon fill="#000000" stroke="#000000" points="3574.0724,-121.2119 3568.4222,-112.2495 3567.2501,-122.7793 3574.0724,-121.2119"/>
</g>
<!-- UVuv&#45;&gt;v -->
<g id="edge38" class="edge">
<title>UVuv&#45;&gt;v</title>
<path fill="none" stroke="#000000" d="M3595.1639,-147.9432C3601.4022,-139.5497 3608.8487,-129.5309 3615.6641,-120.361"/>
<polygon fill="#000000" stroke="#000000" points="3618.5368,-122.3633 3621.693,-112.2495 3612.9186,-118.1876 3618.5368,-122.3633"/>
</g>
<!-- TStsRQrqSTstQRqrVUvuRQrqTStsQRqrSTstUVuv -->
<g id="node42" class="node">
<title>TStsRQrqSTstQRqrVUvuRQrqTStsQRqrSTstUVuv</title>
<polygon fill="none" stroke="#000000" points="3740,-260 3420,-260 3420,-222 3740,-222 3740,-260"/>
<text text-anchor="middle" x="3580" y="-244.8" font-family="Times,serif" font-size="14.00" fill="#000000">TStsRQrqSTstQRqrVUvuRQrqTStsQRqrSTstUVuv</text>
<text text-anchor="middle" x="3580" y="-229.8" font-family="Times,serif" font-size="14.00" fill="#000000">40</text>
</g>
<!-- TStsRQrqSTstQRqrVUvuRQrqTStsQRqrSTstUVuv&#45;&gt;RQrqTStsQRqrSTst -->
<g id="edge39" class="edge">
<title>TStsRQrqSTstQRqrVUvuRQrqTStsQRqrSTstUVuv&#45;&gt;RQrqTStsQRqrSTst</title>
<path fill="none" stroke="#000000" d="M3551.4147,-221.9432C3537.6684,-212.7789 3521.0154,-201.677 3506.2871,-191.8581"/>
<polygon fill="#000000" stroke="#000000" points="3508.1362,-188.8843 3497.8742,-186.2495 3504.2532,-194.7087 3508.1362,-188.8843"/>
</g>
<!-- TStsRQrqSTstQRqrVUvuRQrqTStsQRqrSTstUVuv&#45;&gt;UVuv -->
<g id="edge40" class="edge">
<title>TStsRQrqSTstQRqrVUvuRQrqTStsQRqrSTstUVuv&#45;&gt;UVuv</title>
<path fill="none" stroke="#000000" d="M3580.2575,-221.9432C3580.3628,-214.1493 3580.4871,-204.9538 3580.6035,-196.3381"/>
<polygon fill="#000000" stroke="#000000" points="3584.1043,-196.2959 3580.7399,-186.2495 3577.105,-196.2012 3584.1043,-196.2959"/>
</g>
<!-- w -->
<g id="node43" class="node">
<title>w</title>
<polygon fill="none" stroke="#000000" points="3738,-112 3684,-112 3684,-74 3738,-74 3738,-112"/>
<text text-anchor="middle" x="3711" y="-96.8" font-family="Times,serif" font-size="14.00" fill="#000000">w</text>
<text text-anchor="middle" x="3711" y="-81.8" font-family="Times,serif" font-size="14.00" fill="#000000">1</text>
</g>
<!-- x -->
<g id="node44" class="node">
<title>x</title>
<polygon fill="none" stroke="#000000" points="3810,-112 3756,-112 3756,-74 3810,-74 3810,-112"/>
<text text-anchor="middle" x="3783" y="-96.8" font-family="Times,serif" font-size="14.00" fill="#000000">x</text>
<text text-anchor="middle" x="3783" y="-81.8" font-family="Times,serif" font-size="14.00" fill="#000000">1</text>
</g>
<!-- WXwx -->
<g id="node45" class="node">
<title>WXwx</title>
<polygon fill="none" stroke="#000000" points="3811.5,-186 3752.5,-186 3752.5,-148 3811.5,-148 3811.5,-186"/>
<text text-anchor="middle" x="3782" y="-170.8" font-family="Times,serif" font-size="14.00" fill="#000000">WXwx</text>
<text text-anchor="middle" x="3782" y="-155.8" font-family="Times,serif" font-size="14.00" fill="#000000">4</text>
</g>
<!-- WXwx&#45;&gt;w -->
<g id="edge41" class="edge">
<title>WXwx&#45;&gt;w</title>
<path fill="none" stroke="#000000" d="M3763.7157,-147.9432C3755.4161,-139.2928 3745.4599,-128.9159 3736.4462,-119.5214"/>
<polygon fill="#000000" stroke="#000000" points="3738.9179,-117.0421 3729.4691,-112.2495 3733.8668,-121.8885 3738.9179,-117.0421"/>
</g>
<!-- WXwx&#45;&gt;x -->
<g id="edge42" class="edge">
<title>WXwx&#45;&gt;x</title>
<path fill="none" stroke="#000000" d="M3782.2575,-147.9432C3782.3628,-140.1493 3782.4871,-130.9538 3782.6035,-122.3381"/>
<polygon fill="#000000" stroke="#000000" points="3786.1043,-122.2959 3782.7399,-112.2495 3779.105,-122.2012 3786.1043,-122.2959"/>
</g>
<!-- y -->
<g id="node46" class="node">
<title>y</title>
<polygon fill="none" stroke="#000000" points="3883,-112 3829,-112 3829,-74 3883,-74 3883,-112"/>
<text text-anchor="middle" x="3856" y="-96.8" font-family="Times,serif" font-size="14.00" fill="#000000">y</text>
<text text-anchor="middle" x="3856" y="-81.8" font-family="Times,serif" font-size="14.00" fill="#000000">1</text>
</g>
<!-- z -->
<g id="node47" class="node">
<title>z</title>
<polygon fill="none" stroke="#000000" points="3955,-112 3901,-112 3901,-74 3955,-74 3955,-112"/>
<text text-anchor="middle" x="3928" y="-96.8" font-family="Times,serif" font-size="14.00" fill="#000000">z</text>
<text text-anchor="middle" x="3928" y="-81.8" font-family="Times,serif" font-size="14.00" fill="#000000">1</text>
</g>
<!-- YZyz -->
<g id="node48" class="node">
<title>YZyz</title>
<polygon fill="none" stroke="#000000" points="3884,-186 3830,-186 3830,-148 3884,-148 3884,-186"/>
<text text-anchor="middle" x="3857" y="-170.8" font-family="Times,serif" font-size="14.00" fill="#000000">YZyz</text>
<text text-anchor="middle" x="3857" y="-155.8" font-family="Times,serif" font-size="14.00" fill="#000000">4</text>
</g>
<!-- YZyz&#45;&gt;y -->
<g id="edge43" class="edge">
<title>YZyz&#45;&gt;y</title>
<path fill="none" stroke="#000000" d="M3856.7425,-147.9432C3856.6372,-140.1493 3856.5129,-130.9538 3856.3965,-122.3381"/>
<polygon fill="#000000" stroke="#000000" points="3859.895,-122.2012 3856.2601,-112.2495 3852.8957,-122.2959 3859.895,-122.2012"/>
</g>
<!-- YZyz&#45;&gt;z -->
<g id="edge44" class="edge">
<title>YZyz&#45;&gt;z</title>
<path fill="none" stroke="#000000" d="M3875.2843,-147.9432C3883.5839,-139.2928 3893.5401,-128.9159 3902.5538,-119.5214"/>
<polygon fill="#000000" stroke="#000000" points="3905.1332,-121.8885 3909.5309,-112.2495 3900.0821,-117.0421 3905.1332,-121.8885"/>
</g>
<!-- XWxwZYzyWXwxYZyz -->
<g id="node49" class="node">
<title>XWxwZYzyWXwxYZyz</title>
<polygon fill="none" stroke="#000000" points="3925.5,-260 3758.5,-260 3758.5,-222 3925.5,-222 3925.5,-260"/>
<text text-anchor="middle" x="3842" y="-244.8" font-family="Times,serif" font-size="14.00" fill="#000000">XWxwZYzyWXwxYZyz</text>
<text text-anchor="middle" x="3842" y="-229.8" font-family="Times,serif" font-size="14.00" fill="#000000">16</text>
</g>
<!-- XWxwZYzyWXwxYZyz&#45;&gt;WXwx -->
<g id="edge45" class="edge">
<title>XWxwZYzyWXwxYZyz&#45;&gt;WXwx</title>
<path fill="none" stroke="#000000" d="M3826.5485,-221.9432C3819.6736,-213.4641 3811.4537,-203.3262 3803.9572,-194.0806"/>
<polygon fill="#000000" stroke="#000000" points="3806.6244,-191.8127 3797.6077,-186.2495 3801.1871,-196.2214 3806.6244,-191.8127"/>
</g>
<!-- XWxwZYzyWXwxYZyz&#45;&gt;YZyz -->
<g id="edge46" class="edge">
<title>XWxwZYzyWXwxYZyz&#45;&gt;YZyz</title>
<path fill="none" stroke="#000000" d="M3845.8629,-221.9432C3847.4601,-214.0636 3849.3477,-204.7516 3851.1106,-196.0543"/>
<polygon fill="#000000" stroke="#000000" points="3854.5416,-196.7455 3853.0981,-186.2495 3847.6811,-195.3548 3854.5416,-196.7455"/>
</g>
<!-- VUvuTStsRQrqSTstQRqrUVuvRQrqTStsQRqrSTstZYzyXWxwYZyzWXwxTStsRQrqSTstQRqrVUvuRQrqTStsQRqrSTstUVuvXWxwZYzyWXwxYZyz -->
<g id="node50" class="node">
<title>VUvuTStsRQrqSTstQRqrUVuvRQrqTStsQRqrSTstZYzyXWxwYZyzWXwxTStsRQrqSTstQRqrVUvuRQrqTStsQRqrSTstUVuvXWxwZYzyWXwxYZyz</title>
<polygon fill="none" stroke="#000000" points="4173,-334 3249,-334 3249,-296 4173,-296 4173,-334"/>
<text text-anchor="middle" x="3711" y="-318.8" font-family="Times,serif" font-size="14.00" fill="#000000">VUvuTStsRQrqSTstQRqrUVuvRQrqTStsQRqrSTstZYzyXWxwYZyzWXwxTStsRQrqSTstQRqrVUvuRQrqTStsQRqrSTstUVuvXWxwZYzyWXwxYZyz</text>
<text text-anchor="middle" x="3711" y="-303.8" font-family="Times,serif" font-size="14.00" fill="#000000">112</text>
</g>
<!-- VUvuTStsRQrqSTstQRqrUVuvRQrqTStsQRqrSTstZYzyXWxwYZyzWXwxTStsRQrqSTstQRqrVUvuRQrqTStsQRqrSTstUVuvXWxwZYzyWXwxYZyz&#45;&gt;TStsRQrqSTstQRqrVUvuRQrqTStsQRqrSTstUVuv -->
<g id="edge47" class="edge">
<title>VUvuTStsRQrqSTstQRqrUVuvRQrqTStsQRqrSTstZYzyXWxwYZyzWXwxTStsRQrqSTstQRqrVUvuRQrqTStsQRqrSTstUVuvXWxwZYzyWXwxYZyz&#45;&gt;TStsRQrqSTstQRqrVUvuRQrqTStsQRqrSTstUVuv</title>
<path fill="none" stroke="#000000" d="M3677.2642,-295.9432C3660.7378,-286.6076 3640.6517,-275.2612 3623.0332,-265.3088"/>
<polygon fill="#000000" stroke="#000000" points="3624.5051,-262.1205 3614.0767,-260.2495 3621.0622,-268.2153 3624.5051,-262.1205"/>
</g>
<!-- VUvuTStsRQrqSTstQRqrUVuvRQrqTStsQRqrSTstZYzyXWxwYZyzWXwxTStsRQrqSTstQRqrVUvuRQrqTStsQRqrSTstUVuvXWxwZYzyWXwxYZyz&#45;&gt;XWxwZYzyWXwxYZyz -->
<g id="edge48" class="edge">
<title>VUvuTStsRQrqSTstQRqrUVuvRQrqTStsQRqrSTstZYzyXWxwYZyzWXwxTStsRQrqSTstQRqrVUvuRQrqTStsQRqrSTstUVuvXWxwZYzyWXwxYZyz&#45;&gt;XWxwZYzyWXwxYZyz</title>
<path fill="none" stroke="#000000" d="M3744.7358,-295.9432C3761.2622,-286.6076 3781.3483,-275.2612 3798.9668,-265.3088"/>
<polygon fill="#000000" stroke="#000000" points="3800.9378,-268.2153 3807.9233,-260.2495 3797.4949,-262.1205 3800.9378,-268.2153"/>
</g>
<!-- POpoNMnmOPopMNmnLKlkJIjiKLklIJijNMnmPOpoMNmnOPopJIjiLKlkIJijKLklHGhgFEfeGHghEFefDCdcBAbaCDcdABabFEfeHGhgEFefGHghBAbaDCdcABabCDcdLKlkJIjiKLklIJijPOpoNMnmOPopMNmnJIjiLKlkIJijKLklNMnmPOpoMNmnOPopDCdcBAbaCDcdABabHGhgFEfeGHghEFefBAbaDCdcABabCDcdFEfeHGhgEFefGHghZYzyXWxwYZyzWXwxVUvuTStsRQrqSTstQRqrUVuvRQrqTStsQRqrSTstXWxwZYzyWXwxYZyzTStsRQrqSTstQRqrVUvuRQrqTStsQRqrSTstUVuvHGhgFEfeGHghEFefDCdcBAbaCDcdABabFEfeHGhgEFefGHghBAbaDCdcABabCDcdPOpoNMnmOPopMNmnLKlkJIjiKLklIJijNMnmPOpoMNmnOPopJIjiLKlkIJijKLklDCdcBAbaCDcdABabHGhgFEfeGHghEFefBAbaDCdcABabCDcdFEfeHGhgEFefGHghLKlkJIjiKLklIJijPOpoNMnmOPopMNmnJIjiLKlkIJijKLklNMnmPOpoMNmnOPopVUvuTStsRQrqSTstQRqrUVuvRQrqTStsQRqrSTstZYzyXWxwYZyzWXwxTStsRQrqSTstQRqrVUvuRQrqTStsQRqrSTstUVuvXWxwZYzyWXwxYZyz -->
<g id="node51" class="node">
<title>POpoNMnmOPopMNmnLKlkJIjiKLklIJijNMnmPOpoMNmnOPopJIjiLKlkIJijKLklHGhgFEfeGHghEFefDCdcBAbaCDcdABabFEfeHGhgEFefGHghBAbaDCdcABabCDcdLKlkJIjiKLklIJijPOpoNMnmOPopMNmnJIjiLKlkIJijKLklNMnmPOpoMNmnOPopDCdcBAbaCDcdABabHGhgFEfeGHghEFefBAbaDCdcABabCDcdFEfeHGhgEFefGHghZYzyXWxwYZyzWXwxVUvuTStsRQrqSTstQRqrUVuvRQrqTStsQRqrSTstXWxwZYzyWXwxYZyzTStsRQrqSTstQRqrVUvuRQrqTStsQRqrSTstUVuvHGhgFEfeGHghEFefDCdcBAbaCDcdABabFEfeHGhgEFefGHghBAbaDCdcABabCDcdPOpoNMnmOPopMNmnLKlkJIjiKLklIJijNMnmPOpoMNmnOPopJIjiLKlkIJijKLklDCdcBAbaCDcdABabHGhgFEfeGHghEFefBAbaDCdcABabCDcdFEfeHGhgEFefGHghLKlkJIjiKLklIJijPOpoNMnmOPopMNmnJIjiLKlkIJijKLklNMnmPOpoMNmnOPopVUvuTStsRQrqSTstQRqrUVuvRQrqTStsQRqrSTstZYzyXWxwYZyzWXwxTStsRQrqSTstQRqrVUvuRQrqTStsQRqrSTstUVuvXWxwZYzyWXwxYZyz</title>
<polygon fill="none" stroke="#000000" points="5912,-408 0,-408 0,-370 5912,-370 5912,-408"/>
<text text-anchor="middle" x="2956" y="-392.8" font-family="Times,serif" font-size="14.00" fill="#000000">POpoNMnmOPopMNmnLKlkJIjiKLklIJijNMnmPOpoMNmnOPopJIjiLKlkIJijKLklHGhgFEfeGHghEFefDCdcBAbaCDcdABabFEfeHGhgEFefGHghBAbaDCdcABabCDcdLKlkJIjiKLklIJijPOpoNMnmOPopMNmnJIjiLKlkIJijKLklNMnmPOpoMNmnOPopDCdcBAbaCDcdABabHGhgFEfeGHghEFefBAbaDCdcABabCDcdFEfeHGhgEFefGHghZYzyXWxwYZyzWXwxVUvuTStsRQrqSTstQRqrUVuvRQrqTStsQRqrSTstXWxwZYzyWXwxYZyzTStsRQrqSTstQRqrVUvuRQrqTStsQRqrSTstUVuvHGhgFEfeGHghEFefDCdcBAbaCDcdABabFEfeHGhgEFefGHghBAbaDCdcABabCDcdPOpoNMnmOPopMNmnLKlkJIjiKLklIJijNMnmPOpoMNmnOPopJIjiLKlkIJijKLklDCdcBAbaCDcdABabHGhgFEfeGHghEFefBAbaDCdcABabCDcdFEfeHGhgEFefGHghLKlkJIjiKLklIJijPOpoNMnmOPopMNmnJIjiLKlkIJijKLklNMnmPOpoMNmnOPopVUvuTStsRQrqSTstQRqrUVuvRQrqTStsQRqrSTstZYzyXWxwYZyzWXwxTStsRQrqSTstQRqrVUvuRQrqTStsQRqrSTstUVuvXWxwZYzyWXwxYZyz</text>
<text text-anchor="middle" x="2956" y="-377.8" font-family="Times,serif" font-size="14.00" fill="#000000">736</text>
</g>
<!-- POpoNMnmOPopMNmnLKlkJIjiKLklIJijNMnmPOpoMNmnOPopJIjiLKlkIJijKLklHGhgFEfeGHghEFefDCdcBAbaCDcdABabFEfeHGhgEFefGHghBAbaDCdcABabCDcdLKlkJIjiKLklIJijPOpoNMnmOPopMNmnJIjiLKlkIJijKLklNMnmPOpoMNmnOPopDCdcBAbaCDcdABabHGhgFEfeGHghEFefBAbaDCdcABabCDcdFEfeHGhgEFefGHghZYzyXWxwYZyzWXwxVUvuTStsRQrqSTstQRqrUVuvRQrqTStsQRqrSTstXWxwZYzyWXwxYZyzTStsRQrqSTstQRqrVUvuRQrqTStsQRqrSTstUVuvHGhgFEfeGHghEFefDCdcBAbaCDcdABabFEfeHGhgEFefGHghBAbaDCdcABabCDcdPOpoNMnmOPopMNmnLKlkJIjiKLklIJijNMnmPOpoMNmnOPopJIjiLKlkIJijKLklDCdcBAbaCDcdABabHGhgFEfeGHghEFefBAbaDCdcABabCDcdFEfeHGhgEFefGHghLKlkJIjiKLklIJijPOpoNMnmOPopMNmnJIjiLKlkIJijKLklNMnmPOpoMNmnOPopVUvuTStsRQrqSTstQRqrUVuvRQrqTStsQRqrSTstZYzyXWxwYZyzWXwxTStsRQrqSTstQRqrVUvuRQrqTStsQRqrSTstUVuvXWxwZYzyWXwxYZyz&#45;&gt;HGhgFEfeGHghEFefDCdcBAbaCDcdABabFEfeHGhgEFefGHghBAbaDCdcABabCDcdPOpoNMnmOPopMNmnLKlkJIjiKLklIJijNMnmPOpoMNmnOPopJIjiLKlkIJijKLklDCdcBAbaCDcdABabHGhgFEfeGHghEFefBAbaDCdcABabCDcdFEfeHGhgEFefGHghLKlkJIjiKLklIJijPOpoNMnmOPopMNmnJIjiLKlkIJijKLklNMnmPOpoMNmnOPop -->
<g id="edge49" class="edge">
<title>POpoNMnmOPopMNmnLKlkJIjiKLklIJijNMnmPOpoMNmnOPopJIjiLKlkIJijKLklHGhgFEfeGHghEFefDCdcBAbaCDcdABabFEfeHGhgEFefGHghBAbaDCdcABabCDcdLKlkJIjiKLklIJijPOpoNMnmOPopMNmnJIjiLKlkIJijKLklNMnmPOpoMNmnOPopDCdcBAbaCDcdABabHGhgFEfeGHghEFefBAbaDCdcABabCDcdFEfeHGhgEFefGHghZYzyXWxwYZyzWXwxVUvuTStsRQrqSTstQRqrUVuvRQrqTStsQRqrSTstXWxwZYzyWXwxYZyzTStsRQrqSTstQRqrVUvuRQrqTStsQRqrSTstUVuvHGhgFEfeGHghEFefDCdcBAbaCDcdABabFEfeHGhgEFefGHghBAbaDCdcABabCDcdPOpoNMnmOPopMNmnLKlkJIjiKLklIJijNMnmPOpoMNmnOPopJIjiLKlkIJijKLklDCdcBAbaCDcdABabHGhgFEfeGHghEFefBAbaDCdcABabCDcdFEfeHGhgEFefGHghLKlkJIjiKLklIJijPOpoNMnmOPopMNmnJIjiLKlkIJijKLklNMnmPOpoMNmnOPopVUvuTStsRQrqSTstQRqrUVuvRQrqTStsQRqrSTstZYzyXWxwYZyzWXwxTStsRQrqSTstQRqrVUvuRQrqTStsQRqrSTstUVuvXWxwZYzyWXwxYZyz&#45;&gt;HGhgFEfeGHghEFefDCdcBAbaCDcdABabFEfeHGhgEFefGHghBAbaDCdcABabCDcdPOpoNMnmOPopMNmnLKlkJIjiKLklIJijNMnmPOpoMNmnOPopJIjiLKlkIJijKLklDCdcBAbaCDcdABabHGhgFEfeGHghEFefBAbaDCdcABabCDcdFEfeHGhgEFefGHghLKlkJIjiKLklIJijPOpoNMnmOPopMNmnJIjiLKlkIJijKLklNMnmPOpoMNmnOPop</title>
<path fill="none" stroke="#000000" d="M2762.316,-369.9912C2653.0401,-359.2665 2516.6055,-345.8764 2405.7266,-334.9944"/>
<polygon fill="#000000" stroke="#000000" points="2406.0527,-331.5097 2395.7586,-334.0161 2405.3689,-338.4762 2406.0527,-331.5097"/>
</g>
<!-- POpoNMnmOPopMNmnLKlkJIjiKLklIJijNMnmPOpoMNmnOPopJIjiLKlkIJijKLklHGhgFEfeGHghEFefDCdcBAbaCDcdABabFEfeHGhgEFefGHghBAbaDCdcABabCDcdLKlkJIjiKLklIJijPOpoNMnmOPopMNmnJIjiLKlkIJijKLklNMnmPOpoMNmnOPopDCdcBAbaCDcdABabHGhgFEfeGHghEFefBAbaDCdcABabCDcdFEfeHGhgEFefGHghZYzyXWxwYZyzWXwxVUvuTStsRQrqSTstQRqrUVuvRQrqTStsQRqrSTstXWxwZYzyWXwxYZyzTStsRQrqSTstQRqrVUvuRQrqTStsQRqrSTstUVuvHGhgFEfeGHghEFefDCdcBAbaCDcdABabFEfeHGhgEFefGHghBAbaDCdcABabCDcdPOpoNMnmOPopMNmnLKlkJIjiKLklIJijNMnmPOpoMNmnOPopJIjiLKlkIJijKLklDCdcBAbaCDcdABabHGhgFEfeGHghEFefBAbaDCdcABabCDcdFEfeHGhgEFefGHghLKlkJIjiKLklIJijPOpoNMnmOPopMNmnJIjiLKlkIJijKLklNMnmPOpoMNmnOPopVUvuTStsRQrqSTstQRqrUVuvRQrqTStsQRqrSTstZYzyXWxwYZyzWXwxTStsRQrqSTstQRqrVUvuRQrqTStsQRqrSTstUVuvXWxwZYzyWXwxYZyz&#45;&gt;VUvuTStsRQrqSTstQRqrUVuvRQrqTStsQRqrSTstZYzyXWxwYZyzWXwxTStsRQrqSTstQRqrVUvuRQrqTStsQRqrSTstUVuvXWxwZYzyWXwxYZyz -->
<g id="edge50" class="edge">
<title>POpoNMnmOPopMNmnLKlkJIjiKLklIJijNMnmPOpoMNmnOPopJIjiLKlkIJijKLklHGhgFEfeGHghEFefDCdcBAbaCDcdABabFEfeHGhgEFefGHghBAbaDCdcABabCDcdLKlkJIjiKLklIJijPOpoNMnmOPopMNmnJIjiLKlkIJijKLklNMnmPOpoMNmnOPopDCdcBAbaCDcdABabHGhgFEfeGHghEFefBAbaDCdcABabCDcdFEfeHGhgEFefGHghZYzyXWxwYZyzWXwxVUvuTStsRQrqSTstQRqrUVuvRQrqTStsQRqrSTstXWxwZYzyWXwxYZyzTStsRQrqSTstQRqrVUvuRQrqTStsQRqrSTstUVuvHGhgFEfeGHghEFefDCdcBAbaCDcdABabFEfeHGhgEFefGHghBAbaDCdcABabCDcdPOpoNMnmOPopMNmnLKlkJIjiKLklIJijNMnmPOpoMNmnOPopJIjiLKlkIJijKLklDCdcBAbaCDcdABabHGhgFEfeGHghEFefBAbaDCdcABabCDcdFEfeHGhgEFefGHghLKlkJIjiKLklIJijPOpoNMnmOPopMNmnJIjiLKlkIJijKLklNMnmPOpoMNmnOPopVUvuTStsRQrqSTstQRqrUVuvRQrqTStsQRqrSTstZYzyXWxwYZyzWXwxTStsRQrqSTstQRqrVUvuRQrqTStsQRqrSTstUVuvXWxwZYzyWXwxYZyz&#45;&gt;VUvuTStsRQrqSTstQRqrUVuvRQrqTStsQRqrSTstZYzyXWxwYZyzWXwxTStsRQrqSTstQRqrVUvuRQrqTStsQRqrSTstUVuvXWxwZYzyWXwxYZyz</title>
<path fill="none" stroke="#000000" d="M3149.9409,-369.9912C3259.3617,-359.2665 3395.9773,-345.8764 3507.0032,-334.9944"/>
<polygon fill="#000000" stroke="#000000" points="3507.3736,-338.475 3516.9844,-334.0161 3506.6907,-331.5083 3507.3736,-338.475"/>
</g>
</g>
</svg>